<svg xmlns="http://www.w3.org/2000/svg" viewBox="0 0 45.321 23.535">
  <defs>
    <style>
      .cls-1 {
        fill: #e52b22;
      }
    </style>
  </defs>
  <g id="Group_11" data-name="Group 11" transform="translate(0 0)">
    <path id="Path_3" data-name="Path 3" class="cls-1" d="M0,23.535H15.109V0Z"/>
    <path id="Path_4" data-name="Path 4" class="cls-1" d="M34.14,23.535h15.1V0Z" transform="translate(-19.031)"/>
    <path id="Path_5" data-name="Path 5" class="cls-1" d="M68.27,23.535H83.379V0Z" transform="translate(-38.057)"/>
  </g>
</svg>
